0	1
0.10101	1
0.20202	1
0.30303	1
0.40404	1
0.505051	1
0.606061	1
0.707071	1
0.808081	1
0.909091	1
1.0101	1
1.11111	1
1.21212	1
1.31313	1
1.41414	1
1.51515	0.999999
1.61616	0.999996
1.71717	0.999981
1.81818	0.999918
1.91919	0.999687
2.0202	0.998959
2.12121	0.996977
2.22222	0.99238
2.32323	0.98336
2.42424	0.9684
2.52525	0.947217
2.62626	0.921021
2.72727	0.891807
2.82828	0.86141
2.92929	0.831049
3.0303	0.801368
3.13131	0.772653
3.23232	0.745005
3.33333	0.718439
3.43434	0.692931
3.53535	0.668441
3.63636	0.644921
3.73737	0.62232
3.83838	0.600589
3.93939	0.579678
4.0404	0.559542
4.14141	0.540137
4.24242	0.521422
4.34343	0.50336
4.44444	0.485915
4.54545	0.469052
4.64646	0.452742
4.74747	0.436956
4.84848	0.421666
4.94949	0.406848
5.05051	0.392477
5.15152	0.378533
5.25253	0.364994
5.35354	0.351841
5.45455	0.339057
5.55556	0.326624
5.65657	0.314527
5.75758	0.302751
5.85859	0.291281
5.9596	0.280105
6.06061	0.26921
6.16162	0.258584
6.26263	0.248217
6.36364	0.238098
6.46465	0.228216
6.56566	0.218563
6.66667	0.20913
6.76768	0.199908
6.86869	0.190889
6.9697	0.182065
7.07071	0.17343
7.17172	0.164976
7.27273	0.156697
7.37374	0.148587
7.47475	0.140639
7.57576	0.132847
7.67677	0.125206
7.77778	0.117711
7.87879	0.110355
7.9798	0.103134
8.08081	0.096043
8.18182	0.0890763
8.28283	0.0822288
8.38384	0.0754955
8.48485	0.068871
8.58586	0.0623497
8.68687	0.0559261
8.78788	0.0495939
8.88889	0.0433467
8.9899	0.0371771
9.09091	0.0310766
9.19192	0.0250342
9.29293	0.0190327
9.39394	0.0130273
9.49495	0.0067565
9.59596	0
9.69697	0
9.79798	0
9.89899	0
10	0
